{
  "project_info": {
    "project_number": "433580488094",
    "project_id": "tasker-4e29d",
    "storage_bucket": "tasker-4e29d.appspot.com"
  },
  "client": [
    {
      "client_info": {
        "mobilesdk_app_id": "1:433580488094:android:bf6a378fb9ae14227e128f",
        "android_client_info": {
          "package_name": "dev.belikov.Tasker"
        }
      },
      "oauth_client": [
        {
          "client_id": "433580488094-t0tpdo3j78qj2l4qpv4ubln5ddfohv27.apps.googleusercontent.com",
          "client_type": 3
        }
      ],
      "api_key": [
        {
          "current_key": "AIzaSyDSGKGGVyjqDl96xCr6e772fgrbtJZwP_c"
        }
      ],
      "services": {
        "appinvite_service": {
          "other_platform_oauth_client": [
            {
              "client_id": "433580488094-t0tpdo3j78qj2l4qpv4ubln5ddfohv27.apps.googleusercontent.com",
              "client_type": 3
            },
            {
              "client_id": "433580488094-om16eougtfuerrr4qbh4er4444nthghv.apps.googleusercontent.com",
              "client_type": 2,
              "ios_info": {
                "bundle_id": "dev.belikov.Tasker"
              }
            }
          ]
        }
      }
    }
  ],
  "configuration_version": "1"
}